<?xml version="1.0" encoding="UTF-8"?>
<svg width="538px" height="39px" viewBox="0 0 538 39" version="1.1" xmlns="http://www.w3.org/2000/svg" xmlns:xlink="http://www.w3.org/1999/xlink">
    <!-- Generator: Sketch 56.2 (81672) - https://sketch.com -->
    <title>Logo</title>
    <desc>Created with Sketch.</desc>
    <g id="Page-1" stroke="none" stroke-width="1" fill="none" fill-rule="evenodd">
        <g id="Initiate-V2" transform="translate(-451.000000, -371.000000)" stroke="#FFFFFF">
            <g id="Logo" transform="translate(452.000000, 373.000000)">
                <path d="M10.4198808,34.2045455 L0,34.2045455 L0,0.795454545 L10.4198808,0.795454545 C15.8619348,0.795454545 20.2315185,2.33862093 23.528763,5.425 C26.8580196,8.54319741 28.522623,12.5681572 28.522623,17.5 C28.522623,22.4318428 26.8580196,26.4568026 23.528763,29.575 C20.2315185,32.6613791 15.8619348,34.2045455 10.4198808,34.2045455 Z M2.20882265,2.84772727 L2.20882265,32.1522727 L10.0357377,32.1522727 C15.0296226,32.1522727 18.9830555,30.8159225 21.896155,28.1431818 C24.8092545,25.4704412 26.2657824,21.9227494 26.2657824,17.5 C26.2657824,13.0772506 24.8092545,9.52955882 21.896155,6.85681818 C18.9830555,4.18407755 15.0296226,2.84772727 10.0357377,2.84772727 L2.20882265,2.84772727 Z M110.505155,34.2045455 L87.2644995,34.2045455 L87.2644995,0.795454545 L109.736869,0.795454545 L109.736869,2.84772727 L89.4733222,2.84772727 L89.4733222,15.2090909 L106.231564,15.2090909 L106.231564,17.2613636 L89.4733222,17.2613636 L89.4733222,32.1522727 L110.505155,32.1522727 L110.505155,34.2045455 Z M182.45195,34.7772727 C177.618125,34.7772727 173.600669,33.1545617 170.399461,29.9090909 C167.166241,26.5999835 165.549655,22.4636612 165.549655,17.5 C165.549655,12.5363388 167.166241,8.41592548 170.399461,5.13863636 C173.600669,1.86134725 177.618125,0.222727273 182.45195,0.222727273 C186.133339,0.222727273 189.3345,1.09771852 192.055527,2.84772727 L192.055527,5.23409091 C189.142427,3.29317211 185.957273,2.32272727 182.499968,2.32272727 C178.338397,2.32272727 174.849132,3.77044007 172.032069,6.66590909 C169.215006,9.49774143 167.806495,13.109069 167.806495,17.5 C167.806495,21.8591127 169.215006,25.4863492 172.032069,28.3818182 C174.849132,31.2454689 178.354403,32.6772727 182.547986,32.6772727 C186.549496,32.6772727 189.974737,31.5159207 192.823813,29.1931818 L192.823813,31.6272727 C190.038762,33.7272832 186.581509,34.7772727 182.45195,34.7772727 Z M351.026731,34.2045455 L340.606851,34.2045455 L340.606851,0.795454545 L351.026731,0.795454545 C356.468785,0.795454545 360.838369,2.33862093 364.135614,5.425 C367.46487,8.54319741 369.129474,12.5681572 369.129474,17.5 C369.129474,22.4318428 367.46487,26.4568026 364.135614,29.575 C360.838369,32.6613791 356.468785,34.2045455 351.026731,34.2045455 Z M342.815673,2.84772727 L342.815673,32.1522727 L350.642588,32.1522727 C355.636473,32.1522727 359.589906,30.8159225 362.503006,28.1431818 C365.416105,25.4704412 366.872633,21.9227494 366.872633,17.5 C366.872633,13.0772506 365.416105,9.52955882 362.503006,6.85681818 C359.589906,4.18407755 355.636473,2.84772727 350.642588,2.84772727 L342.815673,2.84772727 Z M427.87135,34.2045455 L451.112006,34.2045455 L451.112006,0.795454545 L428.639636,0.795454545 L428.639636,2.84772727 L448.903183,2.84772727 L448.903183,15.2090909 L432.144942,15.2090909 L432.144942,17.2613636 L448.903183,17.2613636 L448.903183,32.1522727 L427.87135,32.1522727 L427.87135,34.2045455 Z M510.766222,34.2045455 L508.5574,34.2045455 L508.5574,0.795454545 L523.442943,0.795454545 C526.61214,0.795454545 529.109045,1.59090114 530.933733,3.18181818 C532.758422,4.77273523 533.670753,6.90453209 533.670753,9.57727273 C533.670753,11.9954666 532.934486,13.9840831 531.46193,15.5431818 C529.989374,17.1022805 527.940632,18.0409075 525.315641,18.3590909 L536.359754,34.2045455 L533.766789,34.2045455 L522.770693,18.5022727 L510.766222,18.5022727 L510.766222,34.2045455 Z M510.766222,2.84772727 L510.766222,16.45 L523.250872,16.45 C525.843851,16.45 527.860582,15.8613695 529.301125,14.6840909 C530.741669,13.5068123 531.46193,11.8204655 531.46193,9.625 C531.46193,7.49317116 530.741669,5.83068778 529.301125,4.6375 C527.860582,3.44431222 525.843851,2.84772727 523.250872,2.84772727 L510.766222,2.84772727 Z" id="DECODER" stroke-width="0.8" fill="#FFFFFF" fill-rule="nonzero"></path>
                <ellipse id="Oval" stroke-width="2.8" cx="266.795361" cy="17.5" rx="17.4945156" ry="17.5"></ellipse>
            </g>
        </g>
    </g>
</svg>